// Jest Snapshot v1, https://goo.gl/fbAQLP

exports[`<Header /> renders Header element as expected 1`] = `
<header
  className="header"
>
  <Link
    className="header"
    to={
      Object {
        "pathname": "/",
        "state": Object {
          "shouldResetState": true,
        },
      }
    }
  >
    <b
      className="netflix"
    >
      netflix
    </b>
    roulette
  </Link>
</header>
`;
